…
How can we use this now… Let’s start with a for loop!

``` r
output = vector("list", length = 100)

for (i in 1:100) {
  output[[i]] = sim_mean_sd(n_obs = 30)
}

bind_rows(output)
```

    ## # A tibble: 100 × 2
    ##    mu_hat sigma_hat
    ##     <dbl>     <dbl>
    ##  1   1.06      3.38
    ##  2   1.23      3.99
    ##  3   2.59      3.03
    ##  4   2.91      3.58
    ##  5   1.92      3.25
    ##  6   1.32      2.86
    ##  7   2.39      2.91
    ##  8   1.45      3.52
    ##  9   1.98      2.28
    ## 10   1.96      3.37
    ## # … with 90 more rows
…
